An introduction to cutpointr
…
The returned object has the additional column boot which is a nested tibble that includes the cutpoints per bootstrap sample along with the metric calculated using the function in metric and various default metrics. The metrics are suffixed by _b to indicate in-bag results or _oob to indicate out-of-bag results:

opt_cut$boot

## [[1]]
## # A tibble: 50 x 23
##    optimal_cutpoint AUC_b AUC_oob sum_sens_spec_b sum_sens_spec_o… acc_b
##               <dbl> <dbl>   <dbl>           <dbl>            <dbl> <dbl>
##  1                4 0.941   0.900            1.79             1.60 0.923
##  2                2 0.910   0.927            1.71             1.80 0.857
##  3                2 0.962   0.880            1.81             1.68 0.855
##  4                3 0.946   0.906            1.76             1.62 0.906
##  5                2 0.940   0.895            1.79             1.70 0.891
##  6                4 0.940   0.932            1.82             1.56 0.929
##  7                2 0.917   0.918            1.75             1.73 0.844
##  8                2 0.862   0.925            1.63             1.76 0.831
##  9                3 0.970   0.846            1.82             1.48 0.882
## 10                1 0.912   0.920            1.71             1.67 0.782
## # … with 40 more rows, and 17 more variables: acc_oob <dbl>,
## #   sensitivity_b <dbl>, sensitivity_oob <dbl>, specificity_b <dbl>,
## #   specificity_oob <dbl>, kappa_b <dbl>, kappa_oob <dbl>, TP_b <dbl>,
## #   FP_b <dbl>, TN_b <int>, FN_b <int>, TP_oob <dbl>, FP_oob <dbl>,
## #   TN_oob <int>, FN_oob <int>, roc_curve_b <list>, roc_curve_oob <list>
…
Since cutpointr returns a data.frame with the original data, bootstrap results, and the ROC curve in nested tibbles, these data can be conveniently extracted and plotted manually. This offers additional ways of tweaking these plots as well as the possibility to plot results that are not included in plot or one of the other plotting functions. The relevant nested tibbles are in the columns data, roc_curve and boot. The following is an example of accessing and plotting the grouped data.

set.seed(123) # Some missing values expected
opt_cut <- cutpointr(suicide, dsi, suicide, gender, boot_runs = 50)

## Assuming the positive class is yes

## Assuming the positive class has higher x values

## Running bootstrap...

head(opt_cut$data)

## [[1]]
## # A tibble: 392 x 2
##      dsi suicide
##    <dbl> <fct>  
##  1     1 no     
##  2     0 no     
##  3     0 no     
##  4     0 no     
##  5     0 no     
##  6     0 no     
##  7     0 no     
##  8     1 no     
##  9     0 no     
## 10     0 no     
## # … with 382 more rows
## 
## [[2]]
## # A tibble: 140 x 2
##      dsi suicide
##    <dbl> <fct>  
##  1     0 no     
##  2     2 no     
##  3     1 no     
##  4     0 no     
##  5     0 no     
##  6     0 no     
##  7     1 no     
##  8     0 no     
##  9     0 no     
## 10     0 no     
## # … with 130 more rows
…
